{
  "model_class": "HuggingFaceModel",
  "model_id": "CohereForAI/c4ai-command-r-plus",
  "system_message": true,
  "base_model_template": false,
  "load_args": {
    "torch_dtype": "torch.bfloat16",
    "device_map": "auto"
  },
  "tokenizer_load_args": {},
  "generation_args": {
    "max_new_tokens": 100,
    "do_sample": true,
    "temperature": 0.7
  }
}
