{
  "model_class": "LLama3Model",
  "model_id": "/gpfsscratch/rech/imi/utu57ed/.cache/huggingface/models--meta-llama--Meta-Llama-3-8B-Instruct/snapshots/e5e23bbe8e749ef0efcf16cad411a7d23bd23298",
  "system_message": true,
  "base_model_template": false,
  "use_vllm": true,
  "load_args": {
    "trust_remote_code": true,
    "dtype": "float16"
  },
  "tokenizer_load_args": {},
  "generation_args": {
    "stop_token_ids": "defined in LLama3Model",
    "max_tokens": 100,
    "temperature": 0.7
  }
}