{
  "model_class": "HuggingFaceModel",
  "model_id": "mistralai/Mixtral-8x7B-v0.1",
  "system_message": true,
  "base_model_template": true,
  "load_args": {
    "trust_remote_code": true,
    "torch_dtype": "torch.float16",
    "device_map": "auto",
    "token": "HF_TOKEN"
  },
  "generation_args": {
    "max_new_tokens": 100,
    "do_sample": true
  }
}
